k折交叉验证-modelr和broom包
…
要提取这些相关信息predicted
结果，我们将unnest
数据帧感谢tidyr包：

library(tidyr)

folds %>%
  mutate(predicted = map2(model, test, ~ augment(.x, newdata = .y))) %>% 
  unnest(predicted)
#> # A tibble: 32 × 14
#>      .id   mpg   cyl  disp    hp  drat    wt  qsec    vs    am  gear  carb
#>    <chr> <dbl> <dbl> <dbl> <dbl> <dbl> <dbl> <dbl> <dbl> <dbl> <dbl> <dbl>
#> 1      1  18.7     8 360.0   175  3.15 3.440 17.02     0     0     3     2
#> 2      1  22.8     4 140.8    95  3.92 3.150 22.90     1     0     4     2
#> 3      1  14.7     8 440.0   230  3.23 5.345 17.42     0     0     3     4
#> 4      1  33.9     4  71.1    65  4.22 1.835 19.90     1     1     4     1
#> 5      1  26.0     4 120.3    91  4.43 2.140 16.70     0     1     5     2
#> 6      1  30.4     4  95.1   113  3.77 1.513 16.90     1     1     5     2
#> 7      1  15.8     8 351.0   264  4.22 3.170 14.50     0     1     5     4
#> 8      2  21.0     6 160.0   110  3.90 2.875 17.02     0     1     4     4
#> 9      2  21.4     6 258.0   110  3.08 3.215 19.44     1     0     3     1
#> 10     2  24.4     4 146.7    62  3.69 3.190 20.00     1     0     4     2
#> # ... with 22 more rows, and 2 more variables: .fitted <dbl>,
#> #   .se.fit <dbl>

这是为了向您展示中间步骤。 在实践中，我们可以跳过mutate
步：

predicted <- folds %>% unnest(map2(model, test, ~ augment(.x, newdata = .y)))
predicted
#> # A tibble: 32 × 14
#>      .id   mpg   cyl  disp    hp  drat    wt  qsec    vs    am  gear  carb
#>    <chr> <dbl> <dbl> <dbl> <dbl> <dbl> <dbl> <dbl> <dbl> <dbl> <dbl> <dbl>
#> 1      1  18.7     8 360.0   175  3.15 3.440 17.02     0     0     3     2
#> 2      1  22.8     4 140.8    95  3.92 3.150 22.90     1     0     4     2
#> 3      1  14.7     8 440.0   230  3.23 5.345 17.42     0     0     3     4
#> 4      1  33.9     4  71.1    65  4.22 1.835 19.90     1     1     4     1
#> 5      1  26.0     4 120.3    91  4.43 2.140 16.70     0     1     5     2
#> 6      1  30.4     4  95.1   113  3.77 1.513 16.90     1     1     5     2
#> 7      1  15.8     8 351.0   264  4.22 3.170 14.50     0     1     5     4
#> 8      2  21.0     6 160.0   110  3.90 2.875 17.02     0     1     4     4
#> 9      2  21.4     6 258.0   110  3.08 3.215 19.44     1     0     3     1
#> 10     2  24.4     4 146.7    62  3.69 3.190 20.00     1     0     4     2
#> # ... with 22 more rows, and 2 more variables: .fitted <dbl>,
#> #   .se.fit <dbl>
…
